Final_WA_Yoo
…
## Simple feature collection with 397 features and 857 fields
## Geometry type: MULTIPOLYGON
## Dimension:     XY
## Bounding box:  xmin: -1990178 ymin: 1327628 xmax: -1872537 ymax: 1421852
## Projected CRS: USA_Contiguous_Albers_Equal_Area_Conic
## # A tibble: 397 x 858
##    GISJOIN STATEFP COUNTYFP TRACTCE GEOID.x NAME  NAMELSAD MTFCC FUNCSTAT  ALAND
##  * <chr>   <chr>   <chr>    <chr>     <dbl> <chr> <chr>    <chr> <chr>     <dbl>
##  1 G53003~ 53      033      000100  5.30e10 1     Census ~ G5020 S        1.91e6
##  2 G53003~ 53      033      000200  5.30e10 2     Census ~ G5020 S        3.29e6
##  3 G53003~ 53      033      000300  5.30e10 3     Census ~ G5020 S        1.21e6
##  4 G53003~ 53      033      000401  5.30e10 4.01  Census ~ G5020 S        1.27e6
##  5 G53003~ 53      033      000402  5.30e10 4.02  Census ~ G5020 S        1.80e6
##  6 G53003~ 53      033      000500  5.30e10 5     Census ~ G5020 S        2.90e6
##  7 G53003~ 53      033      000600  5.30e10 6     Census ~ G5020 S        3.78e6
##  8 G53003~ 53      033      000700  5.30e10 7     Census ~ G5020 S        1.29e6
##  9 G53003~ 53      033      000800  5.30e10 8     Census ~ G5020 S        1.14e6
## 10 G53003~ 53      033      000900  5.30e10 9     Census ~ G5020 S        1.02e6
## # ... with 387 more rows, and 848 more variables: AWATER <dbl>, INTPTLAT <chr>,
## #   INTPTLON <chr>, Shape_Leng <dbl>, Shape_Area <dbl>,
## #   geometry <MULTIPOLYGON [m]>, YEAR <chr>, STUSAB <chr>, REGIONA <lgl>,
## #   DIVISIONA <lgl>, STATE <chr>, STATEA <int>, COUNTY <chr>, COUNTYA <int>,
## #   COUSUBA <lgl>, PLACEA <lgl>, TRACTA <int>, BLKGRPA <lgl>, CONCITA <lgl>,
## #   AIANHHA <lgl>, RES_ONLYA <lgl>, TRUSTA <lgl>, AIHHTLI <lgl>, AITS <lgl>,
## #   ANRCA <lgl>, CBSAA <lgl>, CSAA <lgl>, METDIVA <lgl>, MEMI <lgl>, ...
…
## Simple feature collection with 397 features and 861 fields
## Geometry type: MULTIPOLYGON
## Dimension:     XY
## Bounding box:  xmin: -1990178 ymin: 1327628 xmax: -1872537 ymax: 1421852
## Projected CRS: USA_Contiguous_Albers_Equal_Area_Conic
## # A tibble: 397 x 862
##    GISJOIN STATEFP COUNTYFP TRACTCE GEOID.x NAME  NAMELSAD MTFCC FUNCSTAT  ALAND
##  * <chr>   <chr>   <chr>    <chr>     <dbl> <chr> <chr>    <chr> <chr>     <dbl>
##  1 G53003~ 53      033      000100  5.30e10 1     Census ~ G5020 S        1.91e6
##  2 G53003~ 53      033      000200  5.30e10 2     Census ~ G5020 S        3.29e6
##  3 G53003~ 53      033      000300  5.30e10 3     Census ~ G5020 S        1.21e6
##  4 G53003~ 53      033      000401  5.30e10 4.01  Census ~ G5020 S        1.27e6
##  5 G53003~ 53      033      000402  5.30e10 4.02  Census ~ G5020 S        1.80e6
##  6 G53003~ 53      033      000500  5.30e10 5     Census ~ G5020 S        2.90e6
##  7 G53003~ 53      033      000600  5.30e10 6     Census ~ G5020 S        3.78e6
##  8 G53003~ 53      033      000700  5.30e10 7     Census ~ G5020 S        1.29e6
##  9 G53003~ 53      033      000800  5.30e10 8     Census ~ G5020 S        1.14e6
## 10 G53003~ 53      033      000900  5.30e10 9     Census ~ G5020 S        1.02e6
## # ... with 387 more rows, and 852 more variables: AWATER <dbl>, INTPTLAT <chr>,
## #   INTPTLON <chr>, Shape_Leng <dbl>, Shape_Area <dbl>,
## #   geometry <MULTIPOLYGON [m]>, YEAR <chr>, STUSAB <chr>, REGIONA <lgl>,
## #   DIVISIONA <lgl>, STATE <chr>, STATEA <int>, COUNTY <chr>, COUNTYA <int>,
## #   COUSUBA <lgl>, PLACEA <lgl>, TRACTA <int>, BLKGRPA <lgl>, CONCITA <lgl>,
## #   AIANHHA <lgl>, RES_ONLYA <lgl>, TRUSTA <lgl>, AIHHTLI <lgl>, AITS <lgl>,
## #   ANRCA <lgl>, CBSAA <lgl>, CSAA <lgl>, METDIVA <lgl>, MEMI <lgl>, ...
…
## Simple feature collection with 397 features and 868 fields
## Geometry type: MULTIPOLYGON
## Dimension:     XY
## Bounding box:  xmin: -1990178 ymin: 1327628 xmax: -1872537 ymax: 1421852
## Projected CRS: USA_Contiguous_Albers_Equal_Area_Conic
## # A tibble: 397 x 869
##    GISJOIN STATEFP COUNTYFP TRACTCE GEOID.x NAME  NAMELSAD MTFCC FUNCSTAT  ALAND
##  * <chr>   <chr>   <chr>    <chr>     <dbl> <chr> <chr>    <chr> <chr>     <dbl>
##  1 G53003~ 53      033      000100  5.30e10 1     Census ~ G5020 S        1.91e6
##  2 G53003~ 53      033      000200  5.30e10 2     Census ~ G5020 S        3.29e6
##  3 G53003~ 53      033      000300  5.30e10 3     Census ~ G5020 S        1.21e6
##  4 G53003~ 53      033      000401  5.30e10 4.01  Census ~ G5020 S        1.27e6
##  5 G53003~ 53      033      000402  5.30e10 4.02  Census ~ G5020 S        1.80e6
##  6 G53003~ 53      033      000500  5.30e10 5     Census ~ G5020 S        2.90e6
##  7 G53003~ 53      033      000600  5.30e10 6     Census ~ G5020 S        3.78e6
##  8 G53003~ 53      033      000700  5.30e10 7     Census ~ G5020 S        1.29e6
##  9 G53003~ 53      033      000800  5.30e10 8     Census ~ G5020 S        1.14e6
## 10 G53003~ 53      033      000900  5.30e10 9     Census ~ G5020 S        1.02e6
## # ... with 387 more rows, and 859 more variables: AWATER <dbl>, INTPTLAT <chr>,
## #   INTPTLON <chr>, Shape_Leng <dbl>, Shape_Area <dbl>,
## #   geometry <MULTIPOLYGON [m]>, YEAR <chr>, STUSAB <chr>, REGIONA <lgl>,
## #   DIVISIONA <lgl>, STATE <chr>, STATEA <int>, COUNTY <chr>, COUNTYA <int>,
## #   COUSUBA <lgl>, PLACEA <lgl>, TRACTA <int>, BLKGRPA <lgl>, CONCITA <lgl>,
## #   AIANHHA <lgl>, RES_ONLYA <lgl>, TRUSTA <lgl>, AIHHTLI <lgl>, AITS <lgl>,
## #   ANRCA <lgl>, CBSAA <lgl>, CSAA <lgl>, METDIVA <lgl>, MEMI <lgl>, ...
…
