Final_WI_Yoo
…
## Simple feature collection with 107 features and 731 fields
## Geometry type: MULTIPOLYGON
## Dimension:     XY
## Bounding box:  xmin: 497823.9 ymin: 616210.7 xmax: 567268.3 ymax: 668482.9
## Projected CRS: USA_Contiguous_Albers_Equal_Area_Conic
## # A tibble: 107 x 732
##    GISJOIN STATEFP COUNTYFP TRACTCE GEOID.x NAME  NAMELSAD MTFCC FUNCSTAT  ALAND
##  * <chr>   <chr>   <chr>    <chr>     <dbl> <chr> <chr>    <chr> <chr>     <dbl>
##  1 G55002~ 55      025      000100  5.50e10 1     Census ~ G5020 S        2.07e6
##  2 G55002~ 55      025      000201  5.50e10 2.01  Census ~ G5020 S        1.84e6
##  3 G55002~ 55      025      000202  5.50e10 2.02  Census ~ G5020 S        2.43e6
##  4 G55002~ 55      025      000204  5.50e10 2.04  Census ~ G5020 S        2.68e6
##  5 G55002~ 55      025      000205  5.50e10 2.05  Census ~ G5020 S        4.09e6
##  6 G55002~ 55      025      000300  5.50e10 3     Census ~ G5020 S        2.36e6
##  7 G55002~ 55      025      000401  5.50e10 4.01  Census ~ G5020 S        1.82e6
##  8 G55002~ 55      025      000402  5.50e10 4.02  Census ~ G5020 S        2.80e6
##  9 G55002~ 55      025      000405  5.50e10 4.05  Census ~ G5020 S        4.32e6
## 10 G55002~ 55      025      000406  5.50e10 4.06  Census ~ G5020 S        3.20e6
## # ... with 97 more rows, and 722 more variables: AWATER <dbl>, INTPTLAT <chr>,
## #   INTPTLON <chr>, Shape_Leng <dbl>, Shape_Area <dbl>,
## #   geometry <MULTIPOLYGON [m]>, YEAR <chr>, STUSAB <chr>, REGIONA <lgl>,
## #   DIVISIONA <lgl>, STATE <chr>, STATEA <int>, COUNTY <chr>, COUNTYA <int>,
## #   COUSUBA <lgl>, PLACEA <lgl>, TRACTA <int>, BLKGRPA <lgl>, CONCITA <lgl>,
## #   AIANHHA <lgl>, RES_ONLYA <lgl>, TRUSTA <lgl>, AIHHTLI <lgl>, AITS <lgl>,
## #   ANRCA <lgl>, CBSAA <lgl>, CSAA <lgl>, METDIVA <lgl>, MEMI <lgl>, ...
…
## Simple feature collection with 107 features and 735 fields
## Geometry type: MULTIPOLYGON
## Dimension:     XY
## Bounding box:  xmin: 497823.9 ymin: 616210.7 xmax: 567268.3 ymax: 668482.9
## Projected CRS: USA_Contiguous_Albers_Equal_Area_Conic
## # A tibble: 107 x 736
##    GISJOIN STATEFP COUNTYFP TRACTCE GEOID.x NAME  NAMELSAD MTFCC FUNCSTAT  ALAND
##  * <chr>   <chr>   <chr>    <chr>     <dbl> <chr> <chr>    <chr> <chr>     <dbl>
##  1 G55002~ 55      025      000100  5.50e10 1     Census ~ G5020 S        2.07e6
##  2 G55002~ 55      025      000201  5.50e10 2.01  Census ~ G5020 S        1.84e6
##  3 G55002~ 55      025      000202  5.50e10 2.02  Census ~ G5020 S        2.43e6
##  4 G55002~ 55      025      000204  5.50e10 2.04  Census ~ G5020 S        2.68e6
##  5 G55002~ 55      025      000205  5.50e10 2.05  Census ~ G5020 S        4.09e6
##  6 G55002~ 55      025      000300  5.50e10 3     Census ~ G5020 S        2.36e6
##  7 G55002~ 55      025      000401  5.50e10 4.01  Census ~ G5020 S        1.82e6
##  8 G55002~ 55      025      000402  5.50e10 4.02  Census ~ G5020 S        2.80e6
##  9 G55002~ 55      025      000405  5.50e10 4.05  Census ~ G5020 S        4.32e6
## 10 G55002~ 55      025      000406  5.50e10 4.06  Census ~ G5020 S        3.20e6
## # ... with 97 more rows, and 726 more variables: AWATER <dbl>, INTPTLAT <chr>,
## #   INTPTLON <chr>, Shape_Leng <dbl>, Shape_Area <dbl>,
## #   geometry <MULTIPOLYGON [m]>, YEAR <chr>, STUSAB <chr>, REGIONA <lgl>,
## #   DIVISIONA <lgl>, STATE <chr>, STATEA <int>, COUNTY <chr>, COUNTYA <int>,
## #   COUSUBA <lgl>, PLACEA <lgl>, TRACTA <int>, BLKGRPA <lgl>, CONCITA <lgl>,
## #   AIANHHA <lgl>, RES_ONLYA <lgl>, TRUSTA <lgl>, AIHHTLI <lgl>, AITS <lgl>,
## #   ANRCA <lgl>, CBSAA <lgl>, CSAA <lgl>, METDIVA <lgl>, MEMI <lgl>, ...
…
## Simple feature collection with 107 features and 742 fields
## Geometry type: MULTIPOLYGON
## Dimension:     XY
## Bounding box:  xmin: 497823.9 ymin: 616210.7 xmax: 567268.3 ymax: 668482.9
## Projected CRS: USA_Contiguous_Albers_Equal_Area_Conic
## # A tibble: 107 x 743
##    GISJOIN STATEFP COUNTYFP TRACTCE GEOID.x NAME  NAMELSAD MTFCC FUNCSTAT  ALAND
##  * <chr>   <chr>   <chr>    <chr>     <dbl> <chr> <chr>    <chr> <chr>     <dbl>
##  1 G55002~ 55      025      000100  5.50e10 1     Census ~ G5020 S        2.07e6
##  2 G55002~ 55      025      000201  5.50e10 2.01  Census ~ G5020 S        1.84e6
##  3 G55002~ 55      025      000202  5.50e10 2.02  Census ~ G5020 S        2.43e6
##  4 G55002~ 55      025      000204  5.50e10 2.04  Census ~ G5020 S        2.68e6
##  5 G55002~ 55      025      000205  5.50e10 2.05  Census ~ G5020 S        4.09e6
##  6 G55002~ 55      025      000300  5.50e10 3     Census ~ G5020 S        2.36e6
##  7 G55002~ 55      025      000401  5.50e10 4.01  Census ~ G5020 S        1.82e6
##  8 G55002~ 55      025      000402  5.50e10 4.02  Census ~ G5020 S        2.80e6
##  9 G55002~ 55      025      000405  5.50e10 4.05  Census ~ G5020 S        4.32e6
## 10 G55002~ 55      025      000406  5.50e10 4.06  Census ~ G5020 S        3.20e6
## # ... with 97 more rows, and 733 more variables: AWATER <dbl>, INTPTLAT <chr>,
## #   INTPTLON <chr>, Shape_Leng <dbl>, Shape_Area <dbl>,
## #   geometry <MULTIPOLYGON [m]>, YEAR <chr>, STUSAB <chr>, REGIONA <lgl>,
## #   DIVISIONA <lgl>, STATE <chr>, STATEA <int>, COUNTY <chr>, COUNTYA <int>,
## #   COUSUBA <lgl>, PLACEA <lgl>, TRACTA <int>, BLKGRPA <lgl>, CONCITA <lgl>,
## #   AIANHHA <lgl>, RES_ONLYA <lgl>, TRUSTA <lgl>, AIHHTLI <lgl>, AITS <lgl>,
## #   ANRCA <lgl>, CBSAA <lgl>, CSAA <lgl>, METDIVA <lgl>, MEMI <lgl>, ...
…
